5-Jun-2019::11:12:01.527 evaluating: /interface/Loopback[name='0']/fair-queue-conf: not(../name[contains(.,'.')])
5-Jun-2019::11:12:01.544 result: /interface/Loopback[name='0']/fair-queue-conf: true
5-Jun-2019::11:12:01.545 evaluating: /interface/FastEthernet[name='1/0']/xconnect/sequence: ../encapsulation = 'l2tpv3'
5-Jun-2019::11:12:01.546 get_elem(/interface/FastEthernet[name='1/0']/xconnect/encapsulation) = not_found
5-Jun-2019::11:12:01.546 result: /interface/FastEthernet[name='1/0']/xconnect/sequence: false
5-Jun-2019::11:12:01.546 evaluating: /interface/FastEthernet[name='1/0']/fair-queue-conf: not(../name[contains(.,'.')])
5-Jun-2019::11:12:01.546 result: /interface/FastEthernet[name='1/0']/fair-queue-conf: true
5-Jun-2019::11:12:01.550 evaluating: /policy-map[name='map1']/class[name='c1']/policy: ../../type = 'inspect'
5-Jun-2019::11:12:01.550 get_elem(/policy-map[name='map1']/type) = not_found
5-Jun-2019::11:12:01.550 result: /policy-map[name='map1']/class[name='c1']/policy: false
5-Jun-2019::11:12:01.551 evaluating: /policy-map[name='map1']/class[name='c1']/inspect-police: ../policy/action = 'inspect'
5-Jun-2019::11:12:01.551 exists(/policy-map[name='map1']/class[name='c1']/policy) = true
5-Jun-2019::11:12:01.551 get_elem(/policy-map[name='map1']/class[name='c1']/policy/action) = not_found
5-Jun-2019::11:12:01.551 result: /policy-map[name='map1']/class[name='c1']/inspect-police: false
5-Jun-2019::11:12:01.565 evaluating: /router/rip/address-family/ipv4/unicast/disable: ../passive-interface/default
5-Jun-2019::11:12:01.566 exists(/router/rip/address-family/ipv4/unicast/passive-interface/default) = false
5-Jun-2019::11:12:01.566 result: /router/rip/address-family/ipv4/unicast/disable: false
5-Jun-2019::11:12:01.566 evaluating: /router/rip/disable: ../passive-interface/default
5-Jun-2019::11:12:01.566 exists(/router/rip/passive-interface/default) = false
5-Jun-2019::11:12:01.566 result: /router/rip/disable: false
5-Jun-2019::11:12:01.567 evaluating: /router/rip/default/disable: ../passive-interface/default
5-Jun-2019::11:12:01.567 exists(/router/rip/default/passive-interface/default) = false
5-Jun-2019::11:12:01.567 result: /router/rip/default/disable: false
5-Jun-2019::11:12:01.572 evaluating: /router/bgp[as-no='64512']/neighbor[id='1.2.3.4']: count(*) > 1
5-Jun-2019::11:12:01.572 exists(/router/bgp[as-no='64512']/neighbor[id='1.2.3.4']/peer-group) = false
5-Jun-2019::11:12:01.572 get_elem(/router/bgp[as-no='64512']/neighbor[id='1.2.3.4']/remote-as) = 1
5-Jun-2019::11:12:01.572 exists(/router/bgp[as-no='64512']/neighbor[id='1.2.3.4']/local-as) = false
5-Jun-2019::11:12:01.573 exists(/router/bgp[as-no='64512']/neighbor[id='1.2.3.4']/activate) = false
5-Jun-2019::11:12:01.573 get_elem(/router/bgp[as-no='64512']/neighbor[id='1.2.3.4']/advertisement-interval) = not_found
5-Jun-2019::11:12:01.573 exists(/router/bgp[as-no='64512']/neighbor[id='1.2.3.4']/allowas-in) = false
5-Jun-2019::11:12:01.573 exists(/router/bgp[as-no='64512']/neighbor[id='1.2.3.4']/as-override) = false
5-Jun-2019::11:12:01.573 exists(/router/bgp[as-no='64512']/neighbor[id='1.2.3.4']/default-originate) = false
5-Jun-2019::11:12:01.574 get_elem(/router/bgp[as-no='64512']/neighbor[id='1.2.3.4']/description) = not_found
5-Jun-2019::11:12:01.574 exists(/router/bgp[as-no='64512']/neighbor[id='1.2.3.4']/disable-connected-check) = false
5-Jun-2019::11:12:01.574 get_next(/router/bgp[as-no='64512']/neighbor[id='1.2.3.4']/distribute-list) = false
5-Jun-2019::11:12:01.574 exists(/router/bgp[as-no='64512']/neighbor[id='1.2.3.4']/dmzlink-bw) = false
5-Jun-2019::11:12:01.574 exists(/router/bgp[as-no='64512']/neighbor[id='1.2.3.4']/ebgp-multihop) = true
5-Jun-2019::11:12:01.574 exists(/router/bgp[as-no='64512']/neighbor[id='1.2.3.4']/fall-over) = false
5-Jun-2019::11:12:01.574 get_next(/router/bgp[as-no='64512']/neighbor[id='1.2.3.4']/filter-list) = false
5-Jun-2019::11:12:01.575 exists(/router/bgp[as-no='64512']/neighbor[id='1.2.3.4']/next-hop-self) = false
5-Jun-2019::11:12:01.575 exists(/router/bgp[as-no='64512']/neighbor[id='1.2.3.4']/next-hop-unchanged) = false
5-Jun-2019::11:12:01.575 get_next(/router/bgp[as-no='64512']/neighbor[id='1.2.3.4']/prefix-list) = false
5-Jun-2019::11:12:01.575 exists(/router/bgp[as-no='64512']/neighbor[id='1.2.3.4']/remove-private-as) = false
5-Jun-2019::11:12:01.576 get_next(/router/bgp[as-no='64512']/neighbor[id='1.2.3.4']/route-map) = false
5-Jun-2019::11:12:01.576 exists(/router/bgp[as-no='64512']/neighbor[id='1.2.3.4']/route-reflector-client) = false
5-Jun-2019::11:12:01.576 exists(/router/bgp[as-no='64512']/neighbor[id='1.2.3.4']/send-community) = false
5-Jun-2019::11:12:01.576 exists(/router/bgp[as-no='64512']/neighbor[id='1.2.3.4']/shutdown) = false
5-Jun-2019::11:12:01.576 get_elem(/router/bgp[as-no='64512']/neighbor[id='1.2.3.4']/soft-reconfiguration) = not_found
5-Jun-2019::11:12:01.577 get_elem(/router/bgp[as-no='64512']/neighbor[id='1.2.3.4']/unsuppress-map) = not_found
5-Jun-2019::11:12:01.577 get_elem(/router/bgp[as-no='64512']/neighbor[id='1.2.3.4']/version) = not_found
5-Jun-2019::11:12:01.577 get_elem(/router/bgp[as-no='64512']/neighbor[id='1.2.3.4']/weight) = not_found
5-Jun-2019::11:12:01.577 result: /router/bgp[as-no='64512']/neighbor[id='1.2.3.4']: true
5-Jun-2019::11:12:01.577 evaluating: /router/bgp[as-no='64512']/neighbor[id='2.3.4.5']: count(*) > 1
5-Jun-2019::11:12:01.577 exists(/router/bgp[as-no='64512']/neighbor[id='2.3.4.5']/peer-group) = false
5-Jun-2019::11:12:01.578 get_elem(/router/bgp[as-no='64512']/neighbor[id='2.3.4.5']/remote-as) = 1
5-Jun-2019::11:12:01.578 exists(/router/bgp[as-no='64512']/neighbor[id='2.3.4.5']/local-as) = false
5-Jun-2019::11:12:01.578 exists(/router/bgp[as-no='64512']/neighbor[id='2.3.4.5']/activate) = true
5-Jun-2019::11:12:01.578 get_elem(/router/bgp[as-no='64512']/neighbor[id='2.3.4.5']/advertisement-interval) = not_found
5-Jun-2019::11:12:01.578 exists(/router/bgp[as-no='64512']/neighbor[id='2.3.4.5']/allowas-in) = false
5-Jun-2019::11:12:01.578 exists(/router/bgp[as-no='64512']/neighbor[id='2.3.4.5']/as-override) = false
5-Jun-2019::11:12:01.578 exists(/router/bgp[as-no='64512']/neighbor[id='2.3.4.5']/default-originate) = false
5-Jun-2019::11:12:01.578 get_elem(/router/bgp[as-no='64512']/neighbor[id='2.3.4.5']/description) = not_found
5-Jun-2019::11:12:01.578 exists(/router/bgp[as-no='64512']/neighbor[id='2.3.4.5']/disable-connected-check) = false
5-Jun-2019::11:12:01.579 get_next(/router/bgp[as-no='64512']/neighbor[id='2.3.4.5']/distribute-list) = false
5-Jun-2019::11:12:01.579 exists(/router/bgp[as-no='64512']/neighbor[id='2.3.4.5']/dmzlink-bw) = false
5-Jun-2019::11:12:01.579 exists(/router/bgp[as-no='64512']/neighbor[id='2.3.4.5']/ebgp-multihop) = false
5-Jun-2019::11:12:01.579 exists(/router/bgp[as-no='64512']/neighbor[id='2.3.4.5']/fall-over) = false
5-Jun-2019::11:12:01.579 get_next(/router/bgp[as-no='64512']/neighbor[id='2.3.4.5']/filter-list) = false
5-Jun-2019::11:12:01.580 exists(/router/bgp[as-no='64512']/neighbor[id='2.3.4.5']/next-hop-self) = false
5-Jun-2019::11:12:01.580 exists(/router/bgp[as-no='64512']/neighbor[id='2.3.4.5']/next-hop-unchanged) = false
5-Jun-2019::11:12:01.580 get_next(/router/bgp[as-no='64512']/neighbor[id='2.3.4.5']/prefix-list) = false
5-Jun-2019::11:12:01.580 exists(/router/bgp[as-no='64512']/neighbor[id='2.3.4.5']/remove-private-as) = false
5-Jun-2019::11:12:01.580 get_next(/router/bgp[as-no='64512']/neighbor[id='2.3.4.5']/route-map) = false
5-Jun-2019::11:12:01.580 exists(/router/bgp[as-no='64512']/neighbor[id='2.3.4.5']/route-reflector-client) = false
5-Jun-2019::11:12:01.581 exists(/router/bgp[as-no='64512']/neighbor[id='2.3.4.5']/send-community) = false
5-Jun-2019::11:12:01.581 exists(/router/bgp[as-no='64512']/neighbor[id='2.3.4.5']/shutdown) = false
5-Jun-2019::11:12:01.581 get_elem(/router/bgp[as-no='64512']/neighbor[id='2.3.4.5']/soft-reconfiguration) = not_found
5-Jun-2019::11:12:01.581 get_elem(/router/bgp[as-no='64512']/neighbor[id='2.3.4.5']/unsuppress-map) = not_found
5-Jun-2019::11:12:01.581 get_elem(/router/bgp[as-no='64512']/neighbor[id='2.3.4.5']/version) = not_found
5-Jun-2019::11:12:01.581 get_elem(/router/bgp[as-no='64512']/neighbor[id='2.3.4.5']/weight) = 300
5-Jun-2019::11:12:01.581 result: /router/bgp[as-no='64512']/neighbor[id='2.3.4.5']: true
5-Jun-2019::11:12:56.167 evaluating: /interface/FastEthernet[name='1/0']/fair-queue-conf: not(../name[contains(.,'.')])
5-Jun-2019::11:12:56.168 result: /interface/FastEthernet[name='1/0']/fair-queue-conf: true
5-Jun-2019::11:12:56.170 evaluating: /interface/FastEthernet[name='1/0']/xconnect/manual: ../encapsulation = 'l2tpv3'
5-Jun-2019::11:12:56.170 get_elem(/interface/FastEthernet[name='1/0']/xconnect/encapsulation) = not_found
5-Jun-2019::11:12:56.170 result: /interface/FastEthernet[name='1/0']/xconnect/manual: false
5-Jun-2019::11:12:56.181 evaluating: /interface/Loopback[name='0']/fair-queue-conf: not(../name[contains(.,'.')])
5-Jun-2019::11:12:56.181 result: /interface/Loopback[name='0']/fair-queue-conf: true
5-Jun-2019::11:12:56.203 evaluating: /policy-map[name='map1']/class[name='c1']/policy: ../../type = 'inspect'
5-Jun-2019::11:12:56.204 get_elem(/policy-map[name='map1']/type) = not_found
5-Jun-2019::11:12:56.204 result: /policy-map[name='map1']/class[name='c1']/policy: false
5-Jun-2019::11:12:56.204 evaluating: /policy-map[name='map1']/class[name='c1']/inspect-police: ../policy/action = 'inspect'
5-Jun-2019::11:12:56.204 evaluating: /policy-map[name='map1']/class[name='c1']/policy: ../../type = 'inspect'
5-Jun-2019::11:12:56.205 get_elem(/policy-map[name='map1']/type) = not_found
5-Jun-2019::11:12:56.205 result: /policy-map[name='map1']/class[name='c1']/policy: false
5-Jun-2019::11:12:56.205 exists(/policy-map[name='map1']/class[name='c1']/policy) = false
5-Jun-2019::11:12:56.205 result: /policy-map[name='map1']/class[name='c1']/inspect-police: false
5-Jun-2019::11:12:56.206 evaluating: /policy-map[name='map1']/class[name='c1']/policy: ../../type = 'inspect'
5-Jun-2019::11:12:56.206 get_elem(/policy-map[name='map1']/type) = not_found
5-Jun-2019::11:12:56.206 result: /policy-map[name='map1']/class[name='c1']/policy: false
5-Jun-2019::11:12:56.206 evaluating: /policy-map[name='map1']/class[name='c1']/inspect-police: ../policy/action = 'inspect'
5-Jun-2019::11:12:56.206 evaluating: /policy-map[name='map1']/class[name='c1']/policy: ../../type = 'inspect'
5-Jun-2019::11:12:56.207 get_elem(/policy-map[name='map1']/type) = not_found
5-Jun-2019::11:12:56.207 result: /policy-map[name='map1']/class[name='c1']/policy: false
5-Jun-2019::11:12:56.207 exists(/policy-map[name='map1']/class[name='c1']/policy) = false
5-Jun-2019::11:12:56.207 result: /policy-map[name='map1']/class[name='c1']/inspect-police: false
5-Jun-2019::11:12:56.238 evaluating: /router/rip/disable: ../passive-interface/default
5-Jun-2019::11:12:56.238 exists(/router/rip/passive-interface/default) = false
5-Jun-2019::11:12:56.238 result: /router/rip/disable: false
5-Jun-2019::11:12:56.384 evaluating: /interface/FastEthernet[name='1/0']/fair-queue-conf: not(../name[contains(.,'.')])
5-Jun-2019::11:12:56.385 result: /interface/FastEthernet[name='1/0']/fair-queue-conf: true
5-Jun-2019::11:12:56.387 evaluating: /interface/FastEthernet[name='1/0']/xconnect/manual: ../encapsulation = 'l2tpv3'
5-Jun-2019::11:12:56.387 get_elem(/interface/FastEthernet[name='1/0']/xconnect/encapsulation) = not_found
5-Jun-2019::11:12:56.387 result: /interface/FastEthernet[name='1/0']/xconnect/manual: false
5-Jun-2019::11:12:56.394 evaluating: /interface/Loopback[name='0']/fair-queue-conf: not(../name[contains(.,'.')])
5-Jun-2019::11:12:56.394 result: /interface/Loopback[name='0']/fair-queue-conf: true
5-Jun-2019::11:12:56.417 evaluating: /policy-map[name='map1']/class[name='c1']/policy: ../../type = 'inspect'
5-Jun-2019::11:12:56.417 get_elem(/policy-map[name='map1']/type) = not_found
5-Jun-2019::11:12:56.417 result: /policy-map[name='map1']/class[name='c1']/policy: false
5-Jun-2019::11:12:56.417 evaluating: /policy-map[name='map1']/class[name='c1']/inspect-police: ../policy/action = 'inspect'
5-Jun-2019::11:12:56.417 evaluating: /policy-map[name='map1']/class[name='c1']/policy: ../../type = 'inspect'
5-Jun-2019::11:12:56.418 get_elem(/policy-map[name='map1']/type) = not_found
5-Jun-2019::11:12:56.418 result: /policy-map[name='map1']/class[name='c1']/policy: false
5-Jun-2019::11:12:56.418 exists(/policy-map[name='map1']/class[name='c1']/policy) = false
5-Jun-2019::11:12:56.418 result: /policy-map[name='map1']/class[name='c1']/inspect-police: false
5-Jun-2019::11:12:56.419 evaluating: /policy-map[name='map1']/class[name='c1']/policy: ../../type = 'inspect'
5-Jun-2019::11:12:56.419 get_elem(/policy-map[name='map1']/type) = not_found
5-Jun-2019::11:12:56.419 result: /policy-map[name='map1']/class[name='c1']/policy: false
5-Jun-2019::11:12:56.419 evaluating: /policy-map[name='map1']/class[name='c1']/inspect-police: ../policy/action = 'inspect'
5-Jun-2019::11:12:56.419 evaluating: /policy-map[name='map1']/class[name='c1']/policy: ../../type = 'inspect'
5-Jun-2019::11:12:56.419 get_elem(/policy-map[name='map1']/type) = not_found
5-Jun-2019::11:12:56.419 result: /policy-map[name='map1']/class[name='c1']/policy: false
5-Jun-2019::11:12:56.420 exists(/policy-map[name='map1']/class[name='c1']/policy) = false
5-Jun-2019::11:12:56.420 result: /policy-map[name='map1']/class[name='c1']/inspect-police: false
5-Jun-2019::11:12:56.447 evaluating: /router/rip/disable: ../passive-interface/default
5-Jun-2019::11:12:56.447 exists(/router/rip/passive-interface/default) = false
5-Jun-2019::11:12:56.447 result: /router/rip/disable: false
5-Jun-2019::12:07:42.491 evaluating: /interface/Loopback[name='0']/fair-queue-conf: not(../name[contains(.,'.')])
5-Jun-2019::12:07:42.510 result: /interface/Loopback[name='0']/fair-queue-conf: true
5-Jun-2019::12:07:42.511 evaluating: /interface/FastEthernet[name='1/0']/xconnect/sequence: ../encapsulation = 'l2tpv3'
5-Jun-2019::12:07:42.511 get_elem(/interface/FastEthernet[name='1/0']/xconnect/encapsulation) = not_found
5-Jun-2019::12:07:42.511 result: /interface/FastEthernet[name='1/0']/xconnect/sequence: false
5-Jun-2019::12:07:42.511 evaluating: /interface/FastEthernet[name='1/0']/fair-queue-conf: not(../name[contains(.,'.')])
5-Jun-2019::12:07:42.511 result: /interface/FastEthernet[name='1/0']/fair-queue-conf: true
5-Jun-2019::12:07:42.515 evaluating: /policy-map[name='map1']/class[name='c1']/policy: ../../type = 'inspect'
5-Jun-2019::12:07:42.515 get_elem(/policy-map[name='map1']/type) = not_found
5-Jun-2019::12:07:42.515 result: /policy-map[name='map1']/class[name='c1']/policy: false
5-Jun-2019::12:07:42.516 evaluating: /policy-map[name='map1']/class[name='c1']/inspect-police: ../policy/action = 'inspect'
5-Jun-2019::12:07:42.516 exists(/policy-map[name='map1']/class[name='c1']/policy) = true
5-Jun-2019::12:07:42.516 get_elem(/policy-map[name='map1']/class[name='c1']/policy/action) = not_found
5-Jun-2019::12:07:42.516 result: /policy-map[name='map1']/class[name='c1']/inspect-police: false
5-Jun-2019::12:07:42.530 evaluating: /router/rip/address-family/ipv4/unicast/disable: ../passive-interface/default
5-Jun-2019::12:07:42.530 exists(/router/rip/address-family/ipv4/unicast/passive-interface/default) = false
5-Jun-2019::12:07:42.530 result: /router/rip/address-family/ipv4/unicast/disable: false
5-Jun-2019::12:07:42.530 evaluating: /router/rip/disable: ../passive-interface/default
5-Jun-2019::12:07:42.531 exists(/router/rip/passive-interface/default) = false
5-Jun-2019::12:07:42.531 result: /router/rip/disable: false
5-Jun-2019::12:07:42.531 evaluating: /router/rip/default/disable: ../passive-interface/default
5-Jun-2019::12:07:42.531 exists(/router/rip/default/passive-interface/default) = false
5-Jun-2019::12:07:42.531 result: /router/rip/default/disable: false
5-Jun-2019::12:07:42.536 evaluating: /router/bgp[as-no='64512']/neighbor[id='1.2.3.4']: count(*) > 1
5-Jun-2019::12:07:42.537 exists(/router/bgp[as-no='64512']/neighbor[id='1.2.3.4']/peer-group) = false
5-Jun-2019::12:07:42.537 get_elem(/router/bgp[as-no='64512']/neighbor[id='1.2.3.4']/remote-as) = 1
5-Jun-2019::12:07:42.537 exists(/router/bgp[as-no='64512']/neighbor[id='1.2.3.4']/local-as) = false
5-Jun-2019::12:07:42.537 exists(/router/bgp[as-no='64512']/neighbor[id='1.2.3.4']/activate) = false
5-Jun-2019::12:07:42.537 get_elem(/router/bgp[as-no='64512']/neighbor[id='1.2.3.4']/advertisement-interval) = not_found
5-Jun-2019::12:07:42.538 exists(/router/bgp[as-no='64512']/neighbor[id='1.2.3.4']/allowas-in) = false
5-Jun-2019::12:07:42.538 exists(/router/bgp[as-no='64512']/neighbor[id='1.2.3.4']/as-override) = false
5-Jun-2019::12:07:42.538 exists(/router/bgp[as-no='64512']/neighbor[id='1.2.3.4']/default-originate) = false
5-Jun-2019::12:07:42.538 get_elem(/router/bgp[as-no='64512']/neighbor[id='1.2.3.4']/description) = not_found
5-Jun-2019::12:07:42.538 exists(/router/bgp[as-no='64512']/neighbor[id='1.2.3.4']/disable-connected-check) = false
5-Jun-2019::12:07:42.538 get_next(/router/bgp[as-no='64512']/neighbor[id='1.2.3.4']/distribute-list) = false
5-Jun-2019::12:07:42.538 exists(/router/bgp[as-no='64512']/neighbor[id='1.2.3.4']/dmzlink-bw) = false
5-Jun-2019::12:07:42.539 exists(/router/bgp[as-no='64512']/neighbor[id='1.2.3.4']/ebgp-multihop) = true
5-Jun-2019::12:07:42.539 exists(/router/bgp[as-no='64512']/neighbor[id='1.2.3.4']/fall-over) = false
5-Jun-2019::12:07:42.539 get_next(/router/bgp[as-no='64512']/neighbor[id='1.2.3.4']/filter-list) = false
5-Jun-2019::12:07:42.539 exists(/router/bgp[as-no='64512']/neighbor[id='1.2.3.4']/next-hop-self) = false
5-Jun-2019::12:07:42.539 exists(/router/bgp[as-no='64512']/neighbor[id='1.2.3.4']/next-hop-unchanged) = false
5-Jun-2019::12:07:42.539 get_next(/router/bgp[as-no='64512']/neighbor[id='1.2.3.4']/prefix-list) = false
5-Jun-2019::12:07:42.540 exists(/router/bgp[as-no='64512']/neighbor[id='1.2.3.4']/remove-private-as) = false
5-Jun-2019::12:07:42.540 get_next(/router/bgp[as-no='64512']/neighbor[id='1.2.3.4']/route-map) = false
5-Jun-2019::12:07:42.540 exists(/router/bgp[as-no='64512']/neighbor[id='1.2.3.4']/route-reflector-client) = false
5-Jun-2019::12:07:42.540 exists(/router/bgp[as-no='64512']/neighbor[id='1.2.3.4']/send-community) = false
5-Jun-2019::12:07:42.540 exists(/router/bgp[as-no='64512']/neighbor[id='1.2.3.4']/shutdown) = false
5-Jun-2019::12:07:42.540 get_elem(/router/bgp[as-no='64512']/neighbor[id='1.2.3.4']/soft-reconfiguration) = not_found
5-Jun-2019::12:07:42.540 get_elem(/router/bgp[as-no='64512']/neighbor[id='1.2.3.4']/unsuppress-map) = not_found
5-Jun-2019::12:07:42.541 get_elem(/router/bgp[as-no='64512']/neighbor[id='1.2.3.4']/version) = not_found
5-Jun-2019::12:07:42.541 get_elem(/router/bgp[as-no='64512']/neighbor[id='1.2.3.4']/weight) = not_found
5-Jun-2019::12:07:42.541 result: /router/bgp[as-no='64512']/neighbor[id='1.2.3.4']: true
5-Jun-2019::12:07:42.541 evaluating: /router/bgp[as-no='64512']/neighbor[id='2.3.4.5']: count(*) > 1
5-Jun-2019::12:07:42.541 exists(/router/bgp[as-no='64512']/neighbor[id='2.3.4.5']/peer-group) = false
5-Jun-2019::12:07:42.541 get_elem(/router/bgp[as-no='64512']/neighbor[id='2.3.4.5']/remote-as) = 1
5-Jun-2019::12:07:42.541 exists(/router/bgp[as-no='64512']/neighbor[id='2.3.4.5']/local-as) = false
5-Jun-2019::12:07:42.541 exists(/router/bgp[as-no='64512']/neighbor[id='2.3.4.5']/activate) = true
5-Jun-2019::12:07:42.541 get_elem(/router/bgp[as-no='64512']/neighbor[id='2.3.4.5']/advertisement-interval) = not_found
5-Jun-2019::12:07:42.541 exists(/router/bgp[as-no='64512']/neighbor[id='2.3.4.5']/allowas-in) = false
5-Jun-2019::12:07:42.542 exists(/router/bgp[as-no='64512']/neighbor[id='2.3.4.5']/as-override) = false
5-Jun-2019::12:07:42.542 exists(/router/bgp[as-no='64512']/neighbor[id='2.3.4.5']/default-originate) = false
5-Jun-2019::12:07:42.542 get_elem(/router/bgp[as-no='64512']/neighbor[id='2.3.4.5']/description) = not_found
5-Jun-2019::12:07:42.542 exists(/router/bgp[as-no='64512']/neighbor[id='2.3.4.5']/disable-connected-check) = false
5-Jun-2019::12:07:42.542 get_next(/router/bgp[as-no='64512']/neighbor[id='2.3.4.5']/distribute-list) = false
5-Jun-2019::12:07:42.542 exists(/router/bgp[as-no='64512']/neighbor[id='2.3.4.5']/dmzlink-bw) = false
5-Jun-2019::12:07:42.542 exists(/router/bgp[as-no='64512']/neighbor[id='2.3.4.5']/ebgp-multihop) = false
5-Jun-2019::12:07:42.542 exists(/router/bgp[as-no='64512']/neighbor[id='2.3.4.5']/fall-over) = false
5-Jun-2019::12:07:42.543 get_next(/router/bgp[as-no='64512']/neighbor[id='2.3.4.5']/filter-list) = false
5-Jun-2019::12:07:42.543 exists(/router/bgp[as-no='64512']/neighbor[id='2.3.4.5']/next-hop-self) = false
5-Jun-2019::12:07:42.543 exists(/router/bgp[as-no='64512']/neighbor[id='2.3.4.5']/next-hop-unchanged) = false
5-Jun-2019::12:07:42.543 get_next(/router/bgp[as-no='64512']/neighbor[id='2.3.4.5']/prefix-list) = false
5-Jun-2019::12:07:42.543 exists(/router/bgp[as-no='64512']/neighbor[id='2.3.4.5']/remove-private-as) = false
5-Jun-2019::12:07:42.543 get_next(/router/bgp[as-no='64512']/neighbor[id='2.3.4.5']/route-map) = false
5-Jun-2019::12:07:42.543 exists(/router/bgp[as-no='64512']/neighbor[id='2.3.4.5']/route-reflector-client) = false
5-Jun-2019::12:07:42.543 exists(/router/bgp[as-no='64512']/neighbor[id='2.3.4.5']/send-community) = false
5-Jun-2019::12:07:42.543 exists(/router/bgp[as-no='64512']/neighbor[id='2.3.4.5']/shutdown) = false
5-Jun-2019::12:07:42.543 get_elem(/router/bgp[as-no='64512']/neighbor[id='2.3.4.5']/soft-reconfiguration) = not_found
5-Jun-2019::12:07:42.544 get_elem(/router/bgp[as-no='64512']/neighbor[id='2.3.4.5']/unsuppress-map) = not_found
5-Jun-2019::12:07:42.544 get_elem(/router/bgp[as-no='64512']/neighbor[id='2.3.4.5']/version) = not_found
5-Jun-2019::12:07:42.544 get_elem(/router/bgp[as-no='64512']/neighbor[id='2.3.4.5']/weight) = 300
5-Jun-2019::12:07:42.544 result: /router/bgp[as-no='64512']/neighbor[id='2.3.4.5']: true
5-Jun-2019::12:07:57.738 evaluating: /interface/FastEthernet[name='1/0']/fair-queue-conf: not(../name[contains(.,'.')])
5-Jun-2019::12:07:57.738 result: /interface/FastEthernet[name='1/0']/fair-queue-conf: true
5-Jun-2019::12:07:57.740 evaluating: /interface/FastEthernet[name='1/0']/xconnect/manual: ../encapsulation = 'l2tpv3'
5-Jun-2019::12:07:57.740 get_elem(/interface/FastEthernet[name='1/0']/xconnect/encapsulation) = not_found
5-Jun-2019::12:07:57.740 result: /interface/FastEthernet[name='1/0']/xconnect/manual: false
5-Jun-2019::12:07:57.747 evaluating: /interface/Loopback[name='0']/fair-queue-conf: not(../name[contains(.,'.')])
5-Jun-2019::12:07:57.747 result: /interface/Loopback[name='0']/fair-queue-conf: true
5-Jun-2019::12:07:57.763 evaluating: /policy-map[name='map1']/class[name='c1']/policy: ../../type = 'inspect'
5-Jun-2019::12:07:57.764 get_elem(/policy-map[name='map1']/type) = not_found
5-Jun-2019::12:07:57.764 result: /policy-map[name='map1']/class[name='c1']/policy: false
5-Jun-2019::12:07:57.764 evaluating: /policy-map[name='map1']/class[name='c1']/inspect-police: ../policy/action = 'inspect'
5-Jun-2019::12:07:57.764 evaluating: /policy-map[name='map1']/class[name='c1']/policy: ../../type = 'inspect'
5-Jun-2019::12:07:57.765 get_elem(/policy-map[name='map1']/type) = not_found
5-Jun-2019::12:07:57.765 result: /policy-map[name='map1']/class[name='c1']/policy: false
5-Jun-2019::12:07:57.765 exists(/policy-map[name='map1']/class[name='c1']/policy) = false
5-Jun-2019::12:07:57.765 result: /policy-map[name='map1']/class[name='c1']/inspect-police: false
5-Jun-2019::12:07:57.765 evaluating: /policy-map[name='map1']/class[name='c1']/policy: ../../type = 'inspect'
5-Jun-2019::12:07:57.766 get_elem(/policy-map[name='map1']/type) = not_found
5-Jun-2019::12:07:57.766 result: /policy-map[name='map1']/class[name='c1']/policy: false
5-Jun-2019::12:07:57.766 evaluating: /policy-map[name='map1']/class[name='c1']/inspect-police: ../policy/action = 'inspect'
5-Jun-2019::12:07:57.766 evaluating: /policy-map[name='map1']/class[name='c1']/policy: ../../type = 'inspect'
5-Jun-2019::12:07:57.766 get_elem(/policy-map[name='map1']/type) = not_found
5-Jun-2019::12:07:57.766 result: /policy-map[name='map1']/class[name='c1']/policy: false
5-Jun-2019::12:07:57.766 exists(/policy-map[name='map1']/class[name='c1']/policy) = false
5-Jun-2019::12:07:57.766 result: /policy-map[name='map1']/class[name='c1']/inspect-police: false
5-Jun-2019::12:07:57.795 evaluating: /router/rip/disable: ../passive-interface/default
5-Jun-2019::12:07:57.795 exists(/router/rip/passive-interface/default) = false
5-Jun-2019::12:07:57.795 result: /router/rip/disable: false
5-Jun-2019::12:07:57.970 evaluating: /interface/FastEthernet[name='1/0']/fair-queue-conf: not(../name[contains(.,'.')])
5-Jun-2019::12:07:57.970 result: /interface/FastEthernet[name='1/0']/fair-queue-conf: true
5-Jun-2019::12:07:57.971 evaluating: /interface/FastEthernet[name='1/0']/xconnect/manual: ../encapsulation = 'l2tpv3'
5-Jun-2019::12:07:57.971 get_elem(/interface/FastEthernet[name='1/0']/xconnect/encapsulation) = not_found
5-Jun-2019::12:07:57.972 result: /interface/FastEthernet[name='1/0']/xconnect/manual: false
5-Jun-2019::12:07:57.978 evaluating: /interface/Loopback[name='0']/fair-queue-conf: not(../name[contains(.,'.')])
5-Jun-2019::12:07:57.978 result: /interface/Loopback[name='0']/fair-queue-conf: true
5-Jun-2019::12:07:57.997 evaluating: /policy-map[name='map1']/class[name='c1']/policy: ../../type = 'inspect'
5-Jun-2019::12:07:57.997 get_elem(/policy-map[name='map1']/type) = not_found
5-Jun-2019::12:07:57.997 result: /policy-map[name='map1']/class[name='c1']/policy: false
5-Jun-2019::12:07:57.998 evaluating: /policy-map[name='map1']/class[name='c1']/inspect-police: ../policy/action = 'inspect'
5-Jun-2019::12:07:57.998 evaluating: /policy-map[name='map1']/class[name='c1']/policy: ../../type = 'inspect'
5-Jun-2019::12:07:57.998 get_elem(/policy-map[name='map1']/type) = not_found
5-Jun-2019::12:07:57.998 result: /policy-map[name='map1']/class[name='c1']/policy: false
5-Jun-2019::12:07:57.998 exists(/policy-map[name='map1']/class[name='c1']/policy) = false
5-Jun-2019::12:07:57.998 result: /policy-map[name='map1']/class[name='c1']/inspect-police: false
5-Jun-2019::12:07:57.999 evaluating: /policy-map[name='map1']/class[name='c1']/policy: ../../type = 'inspect'
5-Jun-2019::12:07:57.999 get_elem(/policy-map[name='map1']/type) = not_found
5-Jun-2019::12:07:57.999 result: /policy-map[name='map1']/class[name='c1']/policy: false
5-Jun-2019::12:07:57.999 evaluating: /policy-map[name='map1']/class[name='c1']/inspect-police: ../policy/action = 'inspect'
5-Jun-2019::12:07:57.999 evaluating: /policy-map[name='map1']/class[name='c1']/policy: ../../type = 'inspect'
5-Jun-2019::12:07:58.000 get_elem(/policy-map[name='map1']/type) = not_found
5-Jun-2019::12:07:58.000 result: /policy-map[name='map1']/class[name='c1']/policy: false
5-Jun-2019::12:07:58.000 exists(/policy-map[name='map1']/class[name='c1']/policy) = false
5-Jun-2019::12:07:58.000 result: /policy-map[name='map1']/class[name='c1']/inspect-police: false
5-Jun-2019::12:07:58.029 evaluating: /router/rip/disable: ../passive-interface/default
5-Jun-2019::12:07:58.029 exists(/router/rip/passive-interface/default) = false
5-Jun-2019::12:07:58.029 result: /router/rip/disable: false
