<INFO> 05-Jun-2019::10:39:04.614 file MainThread: - Python 2.7.11 (default, Mar  1 2016, 18:40:10) [GCC 4.2.1 Compatible Apple LLVM 7.0.2 (clang-700.1.81)]
<INFO> 05-Jun-2019::10:39:04.615 file MainThread: - Starting...
<INFO> 05-Jun-2019::10:39:04.616 file MainThread: - Started
<INFO> 05-Jun-2019::10:39:05.512 file ComponentThread:main: - Main RUNNING
<INFO> 05-Jun-2019::10:45:36.919 file MainThread: - Exiting...
<INFO> 05-Jun-2019::10:45:36.920 file MainThread: - joining ComponentThread file.main.Main...
<INFO> 05-Jun-2019::10:45:36.961 file ComponentThread:main: - Main FINISHED
<INFO> 05-Jun-2019::10:45:36.962 file MainThread: - joined ComponentThread file.main.Main
<INFO> 05-Jun-2019::10:45:36.962 file MainThread: - Exited
<INFO> 05-Jun-2019::10:45:36.962 file MainThread: - Goodbye cruel world...
<INFO> 05-Jun-2019::10:45:37.136 file MainThread: - Python 2.7.11 (default, Mar  1 2016, 18:40:10) [GCC 4.2.1 Compatible Apple LLVM 7.0.2 (clang-700.1.81)]
<INFO> 05-Jun-2019::10:45:37.137 file MainThread: - Starting...
<INFO> 05-Jun-2019::10:45:37.137 file MainThread: - Started
<INFO> 05-Jun-2019::10:45:37.240 file ComponentThread:main: - Main RUNNING
<INFO> 05-Jun-2019::11:09:13.872 file MainThread: - Exiting...
<INFO> 05-Jun-2019::11:09:13.876 file MainThread: - joining ComponentThread file.main.Main...
<INFO> 05-Jun-2019::11:09:13.882 file ComponentThread:main: - Main FINISHED
<INFO> 05-Jun-2019::11:09:13.883 file MainThread: - joined ComponentThread file.main.Main
<INFO> 05-Jun-2019::11:09:13.883 file MainThread: - Exited
<INFO> 05-Jun-2019::11:09:13.883 file MainThread: - Goodbye cruel world...
<INFO> 05-Jun-2019::11:09:22.200 file MainThread: - Python 2.7.11 (default, Mar  1 2016, 18:40:10) [GCC 4.2.1 Compatible Apple LLVM 7.0.2 (clang-700.1.81)]
<INFO> 05-Jun-2019::11:09:22.200 file MainThread: - Starting...
<INFO> 05-Jun-2019::11:09:22.201 file MainThread: - Started
<INFO> 05-Jun-2019::11:09:23.303 file ComponentThread:main: - Main RUNNING
<INFO> 05-Jun-2019::11:11:36.13 file MainThread: - Exiting...
<INFO> 05-Jun-2019::11:11:36.15 file MainThread: - joining ComponentThread file.main.Main...
<INFO> 05-Jun-2019::11:11:36.45 file ComponentThread:main: - Main FINISHED
<INFO> 05-Jun-2019::11:11:36.45 file MainThread: - joined ComponentThread file.main.Main
<INFO> 05-Jun-2019::11:11:36.45 file MainThread: - Exited
<INFO> 05-Jun-2019::11:11:36.45 file MainThread: - Goodbye cruel world...
<INFO> 05-Jun-2019::11:11:36.228 file MainThread: - Python 2.7.11 (default, Mar  1 2016, 18:40:10) [GCC 4.2.1 Compatible Apple LLVM 7.0.2 (clang-700.1.81)]
<INFO> 05-Jun-2019::11:11:36.229 file MainThread: - Starting...
<INFO> 05-Jun-2019::11:11:36.230 file MainThread: - Started
<INFO> 05-Jun-2019::11:11:36.495 file ComponentThread:main: - Main RUNNING
<INFO> 05-Jun-2019::11:19:20.873 file MainThread: - Exiting...
<INFO> 05-Jun-2019::11:19:20.874 file MainThread: - joining ComponentThread file.main.Main...
<INFO> 05-Jun-2019::11:19:20.895 file ComponentThread:main: - Main FINISHED
<INFO> 05-Jun-2019::11:19:20.895 file MainThread: - joined ComponentThread file.main.Main
<INFO> 05-Jun-2019::11:19:20.895 file MainThread: - Exited
<INFO> 05-Jun-2019::11:19:20.895 file MainThread: - Goodbye cruel world...
<INFO> 05-Jun-2019::11:19:21.75 file MainThread: - Python 2.7.11 (default, Mar  1 2016, 18:40:10) [GCC 4.2.1 Compatible Apple LLVM 7.0.2 (clang-700.1.81)]
<INFO> 05-Jun-2019::11:19:21.76 file MainThread: - Starting...
<INFO> 05-Jun-2019::11:19:21.77 file MainThread: - Started
<INFO> 05-Jun-2019::11:19:21.358 file ComponentThread:main: - Main RUNNING
<INFO> 05-Jun-2019::11:31:37.785 file ncs-dp-63223-file:main-1-usid-67-file-action: - action name: double
<ERROR> 05-Jun-2019::11:31:37.786 file ncs-dp-63223-file:main-1-usid-67-file-action: - 'ActionParams' object has no attribute 'name'
<ERROR> 05-Jun-2019::11:31:37.790 file ncs-dp-63223-file:main-1-usid-67-file-action: - Traceback (most recent call last):
  File "/Users/pfinnega/tail-f/4.7/src/ncs/pyapi/ncs/dp.py", line 606, in wrapper
    ret = fn(self, uinfo, str(name), kp, input, output, trans)
  File "/Users/pfinnega/tail-f/4.7/src/ncs/pyapi/ncs/dp.py", line 585, in fn2
    return ofn(self, uinfo, name, kp, input, output)
  File "/Users/pfinnega/tail-f/ryan/state/packages-in-use/1/file/python/file/main.py", line 23, in cb_action
    self.log.info('action input.name: ', input.name)
  File "/Users/pfinnega/tail-f/4.7/src/ncs/pyapi/ncs/maagic.py", line 472, in __getattr__
    super(Node, self).__getattribute__(name)
AttributeError: 'ActionParams' object has no attribute 'name'

<INFO> 05-Jun-2019::11:42:52.406 file MainThread: - Exiting...
<INFO> 05-Jun-2019::11:42:52.407 file MainThread: - joining ComponentThread file.main.Main...
<INFO> 05-Jun-2019::11:42:52.428 file ComponentThread:main: - Main FINISHED
<INFO> 05-Jun-2019::11:42:52.428 file MainThread: - joined ComponentThread file.main.Main
<INFO> 05-Jun-2019::11:42:52.428 file MainThread: - Exited
<INFO> 05-Jun-2019::11:42:52.428 file MainThread: - Goodbye cruel world...
<INFO> 05-Jun-2019::11:42:52.645 file MainThread: - Python 2.7.11 (default, Mar  1 2016, 18:40:10) [GCC 4.2.1 Compatible Apple LLVM 7.0.2 (clang-700.1.81)]
<INFO> 05-Jun-2019::11:42:52.645 file MainThread: - Starting...
<INFO> 05-Jun-2019::11:42:52.646 file MainThread: - Started
<INFO> 05-Jun-2019::11:42:52.931 file ComponentThread:main: - Main RUNNING
<INFO> 05-Jun-2019::11:43:08.161 file ncs-dp-79613-file:main-1-usid-84-file-action: - action name: sshlinux
<ERROR> 05-Jun-2019::11:43:08.161 file ncs-dp-79613-file:main-1-usid-84-file-action: - 'ActionParams' object has no attribute 'name'
<ERROR> 05-Jun-2019::11:43:08.163 file ncs-dp-79613-file:main-1-usid-84-file-action: - Traceback (most recent call last):
  File "/Users/pfinnega/tail-f/4.7/src/ncs/pyapi/ncs/dp.py", line 606, in wrapper
    ret = fn(self, uinfo, str(name), kp, input, output, trans)
  File "/Users/pfinnega/tail-f/4.7/src/ncs/pyapi/ncs/dp.py", line 585, in fn2
    return ofn(self, uinfo, name, kp, input, output)
  File "/Users/pfinnega/tail-f/ryan/state/packages-in-use/1/file/python/file/main.py", line 23, in cb_action
    self.log.info('action input.name: ', input.name)
  File "/Users/pfinnega/tail-f/4.7/src/ncs/pyapi/ncs/maagic.py", line 472, in __getattr__
    super(Node, self).__getattribute__(name)
AttributeError: 'ActionParams' object has no attribute 'name'

<INFO> 05-Jun-2019::12:07:09.419 file MainThread: - Exiting...
<INFO> 05-Jun-2019::12:07:09.421 file MainThread: - joining ComponentThread file.main.Main...
<INFO> 05-Jun-2019::12:07:09.472 file ComponentThread:main: - Main FINISHED
<INFO> 05-Jun-2019::12:07:09.472 file MainThread: - joined ComponentThread file.main.Main
<INFO> 05-Jun-2019::12:07:09.472 file MainThread: - Exited
<INFO> 05-Jun-2019::12:07:09.472 file MainThread: - Goodbye cruel world...
<INFO> 05-Jun-2019::12:07:09.704 file MainThread: - Python 2.7.11 (default, Mar  1 2016, 18:40:10) [GCC 4.2.1 Compatible Apple LLVM 7.0.2 (clang-700.1.81)]
<INFO> 05-Jun-2019::12:07:09.704 file MainThread: - Starting...
<INFO> 05-Jun-2019::12:07:09.705 file MainThread: - Started
<INFO> 05-Jun-2019::12:07:10.244 file ComponentThread:main: - Main RUNNING
<INFO> 05-Jun-2019::12:52:40.591 file ncs-dp-97363-file:main-1-usid-141-file-action: - action name: double
<ERROR> 05-Jun-2019::12:52:40.591 file ncs-dp-97363-file:main-1-usid-141-file-action: - 'ActionParams' object has no attribute 'name'
<ERROR> 05-Jun-2019::12:52:40.599 file ncs-dp-97363-file:main-1-usid-141-file-action: - Traceback (most recent call last):
  File "/Users/pfinnega/tail-f/4.7/src/ncs/pyapi/ncs/dp.py", line 606, in wrapper
    ret = fn(self, uinfo, str(name), kp, input, output, trans)
  File "/Users/pfinnega/tail-f/4.7/src/ncs/pyapi/ncs/dp.py", line 585, in fn2
    return ofn(self, uinfo, name, kp, input, output)
  File "/Users/pfinnega/tail-f/ryan/state/packages-in-use/1/file/python/file/main.py", line 23, in cb_action
    self.log.info('action input.name: ', input.name)
  File "/Users/pfinnega/tail-f/4.7/src/ncs/pyapi/ncs/maagic.py", line 472, in __getattr__
    super(Node, self).__getattribute__(name)
AttributeError: 'ActionParams' object has no attribute 'name'

<INFO> 05-Jun-2019::12:52:43.46 file ncs-dp-97363-file:main-1-usid-141-file-action: - action name: double
<ERROR> 05-Jun-2019::12:52:43.46 file ncs-dp-97363-file:main-1-usid-141-file-action: - 'ActionParams' object has no attribute 'name'
<ERROR> 05-Jun-2019::12:52:43.46 file ncs-dp-97363-file:main-1-usid-141-file-action: - Traceback (most recent call last):
  File "/Users/pfinnega/tail-f/4.7/src/ncs/pyapi/ncs/dp.py", line 606, in wrapper
    ret = fn(self, uinfo, str(name), kp, input, output, trans)
  File "/Users/pfinnega/tail-f/4.7/src/ncs/pyapi/ncs/dp.py", line 585, in fn2
    return ofn(self, uinfo, name, kp, input, output)
  File "/Users/pfinnega/tail-f/ryan/state/packages-in-use/1/file/python/file/main.py", line 23, in cb_action
    self.log.info('action input.name: ', input.name)
  File "/Users/pfinnega/tail-f/4.7/src/ncs/pyapi/ncs/maagic.py", line 472, in __getattr__
    super(Node, self).__getattribute__(name)
AttributeError: 'ActionParams' object has no attribute 'name'

<INFO> 05-Jun-2019::15:55:26.657 file MainThread: - Exiting...
<INFO> 05-Jun-2019::15:55:26.661 file ComponentThread:main: - Main FINISHED
<INFO> 05-Jun-2019::15:55:26.662 file MainThread: - joining ComponentThread file.main.Main...
<INFO> 05-Jun-2019::15:55:26.663 file MainThread: - joined ComponentThread file.main.Main
<INFO> 05-Jun-2019::15:55:26.663 file MainThread: - Exited
<INFO> 05-Jun-2019::15:55:26.663 file MainThread: - Goodbye cruel world...
<INFO> 06-Jun-2019::14:25:50.997 file MainThread: - Python 2.7.11 (default, Mar  1 2016, 18:40:10) [GCC 4.2.1 Compatible Apple LLVM 7.0.2 (clang-700.1.81)]
<INFO> 06-Jun-2019::14:25:50.998 file MainThread: - Starting...
<INFO> 06-Jun-2019::14:25:50.999 file MainThread: - Started
<INFO> 06-Jun-2019::14:25:54.38 file ComponentThread:main: - Main RUNNING
<INFO> 06-Jun-2019::15:34:30.194 file MainThread: - Exiting...
<INFO> 06-Jun-2019::15:34:30.205 file MainThread: - joining ComponentThread file.main.Main...
<INFO> 06-Jun-2019::15:34:30.233 file ComponentThread:main: - Main FINISHED
<INFO> 06-Jun-2019::15:34:30.235 file MainThread: - joined ComponentThread file.main.Main
<INFO> 06-Jun-2019::15:34:30.235 file MainThread: - Exited
<INFO> 06-Jun-2019::15:34:30.235 file MainThread: - Goodbye cruel world...
<INFO> 06-Jun-2019::16:31:01.505 file MainThread: - Python 2.7.11 (default, Mar  1 2016, 18:40:10) [GCC 4.2.1 Compatible Apple LLVM 7.0.2 (clang-700.1.81)]
<INFO> 06-Jun-2019::16:31:01.506 file MainThread: - Starting...
<INFO> 06-Jun-2019::16:31:01.507 file MainThread: - Started
<INFO> 06-Jun-2019::16:31:03.529 file ComponentThread:main: - Main RUNNING
<INFO> 06-Jun-2019::16:32:52.425 file MainThread: - Exiting...
<INFO> 06-Jun-2019::16:32:52.428 file MainThread: - joining ComponentThread file.main.Main...
<INFO> 06-Jun-2019::16:32:52.459 file ComponentThread:main: - Main FINISHED
<INFO> 06-Jun-2019::16:32:52.460 file MainThread: - joined ComponentThread file.main.Main
<INFO> 06-Jun-2019::16:32:52.460 file MainThread: - Exited
<INFO> 06-Jun-2019::16:32:52.460 file MainThread: - Goodbye cruel world...
<INFO> 06-Jun-2019::16:32:52.702 file MainThread: - Python 2.7.11 (default, Mar  1 2016, 18:40:10) [GCC 4.2.1 Compatible Apple LLVM 7.0.2 (clang-700.1.81)]
<INFO> 06-Jun-2019::16:32:52.702 file MainThread: - Starting...
<INFO> 06-Jun-2019::16:32:52.703 file MainThread: - Started
<INFO> 06-Jun-2019::16:32:53.721 file ComponentThread:main: - Main RUNNING
<INFO> 10-Jun-2019::12:20:03.947 file ncs-dp-31506-file:main-1-usid-64-file-action: - action name: double
<ERROR> 10-Jun-2019::12:20:03.949 file ncs-dp-31506-file:main-1-usid-64-file-action: - 'ActionParams' object has no attribute 'name'
<ERROR> 10-Jun-2019::12:20:03.957 file ncs-dp-31506-file:main-1-usid-64-file-action: - Traceback (most recent call last):
  File "/Users/pfinnega/tail-f/4.7/src/ncs/pyapi/ncs/dp.py", line 606, in wrapper
    ret = fn(self, uinfo, str(name), kp, input, output, trans)
  File "/Users/pfinnega/tail-f/4.7/src/ncs/pyapi/ncs/dp.py", line 585, in fn2
    return ofn(self, uinfo, name, kp, input, output)
  File "/Users/pfinnega/tail-f/ryan/state/packages-in-use/1/file/python/file/main.py", line 23, in cb_action
    self.log.info('action input.name: ', input.name)
  File "/Users/pfinnega/tail-f/4.7/src/ncs/pyapi/ncs/maagic.py", line 472, in __getattr__
    super(Node, self).__getattribute__(name)
AttributeError: 'ActionParams' object has no attribute 'name'

<INFO> 10-Jun-2019::12:20:09.133 file ncs-dp-31506-file:main-1-usid-64-file-action: - action name: double
<ERROR> 10-Jun-2019::12:20:09.134 file ncs-dp-31506-file:main-1-usid-64-file-action: - 'ActionParams' object has no attribute 'name'
<ERROR> 10-Jun-2019::12:20:09.134 file ncs-dp-31506-file:main-1-usid-64-file-action: - Traceback (most recent call last):
  File "/Users/pfinnega/tail-f/4.7/src/ncs/pyapi/ncs/dp.py", line 606, in wrapper
    ret = fn(self, uinfo, str(name), kp, input, output, trans)
  File "/Users/pfinnega/tail-f/4.7/src/ncs/pyapi/ncs/dp.py", line 585, in fn2
    return ofn(self, uinfo, name, kp, input, output)
  File "/Users/pfinnega/tail-f/ryan/state/packages-in-use/1/file/python/file/main.py", line 23, in cb_action
    self.log.info('action input.name: ', input.name)
  File "/Users/pfinnega/tail-f/4.7/src/ncs/pyapi/ncs/maagic.py", line 472, in __getattr__
    super(Node, self).__getattribute__(name)
AttributeError: 'ActionParams' object has no attribute 'name'

<INFO> 10-Jun-2019::12:20:31.244 file ncs-dp-31506-file:main-1-usid-64-file-action: - action name: double
<ERROR> 10-Jun-2019::12:20:31.244 file ncs-dp-31506-file:main-1-usid-64-file-action: - 'ActionParams' object has no attribute 'name'
<ERROR> 10-Jun-2019::12:20:31.245 file ncs-dp-31506-file:main-1-usid-64-file-action: - Traceback (most recent call last):
  File "/Users/pfinnega/tail-f/4.7/src/ncs/pyapi/ncs/dp.py", line 606, in wrapper
    ret = fn(self, uinfo, str(name), kp, input, output, trans)
  File "/Users/pfinnega/tail-f/4.7/src/ncs/pyapi/ncs/dp.py", line 585, in fn2
    return ofn(self, uinfo, name, kp, input, output)
  File "/Users/pfinnega/tail-f/ryan/state/packages-in-use/1/file/python/file/main.py", line 23, in cb_action
    self.log.info('action input.name: ', input.name)
  File "/Users/pfinnega/tail-f/4.7/src/ncs/pyapi/ncs/maagic.py", line 472, in __getattr__
    super(Node, self).__getattribute__(name)
AttributeError: 'ActionParams' object has no attribute 'name'

<INFO> 10-Jun-2019::12:26:19.573 file MainThread: - Exiting...
<INFO> 10-Jun-2019::12:26:19.579 file MainThread: - joining ComponentThread file.main.Main...
<INFO> 10-Jun-2019::12:26:19.602 file ComponentThread:main: - Main FINISHED
<INFO> 10-Jun-2019::12:26:19.602 file MainThread: - joined ComponentThread file.main.Main
<INFO> 10-Jun-2019::12:26:19.602 file MainThread: - Exited
<INFO> 10-Jun-2019::12:26:19.602 file MainThread: - Goodbye cruel world...
<INFO> 10-Jun-2019::12:26:19.827 file MainThread: - Python 2.7.11 (default, Mar  1 2016, 18:40:10) [GCC 4.2.1 Compatible Apple LLVM 7.0.2 (clang-700.1.81)]
<INFO> 10-Jun-2019::12:26:19.827 file MainThread: - Starting...
<INFO> 10-Jun-2019::12:26:19.828 file MainThread: - Started
<INFO> 10-Jun-2019::12:26:20.422 file ComponentThread:main: - Main RUNNING
<INFO> 10-Jun-2019::13:37:35.361 file MainThread: - Exiting...
<INFO> 10-Jun-2019::13:37:35.362 file MainThread: - joining ComponentThread file.main.Main...
<INFO> 10-Jun-2019::13:37:35.363 file ComponentThread:main: - Main FINISHED
<INFO> 10-Jun-2019::13:37:35.363 file MainThread: - joined ComponentThread file.main.Main
<INFO> 10-Jun-2019::13:37:35.364 file MainThread: - Exited
<INFO> 10-Jun-2019::13:37:35.364 file MainThread: - Goodbye cruel world...
<INFO> 13-Jun-2019::13:49:44.665 file MainThread: - Python 2.7.11 (default, Mar  1 2016, 18:40:10) [GCC 4.2.1 Compatible Apple LLVM 7.0.2 (clang-700.1.81)]
<INFO> 13-Jun-2019::13:49:44.665 file MainThread: - Starting...
<INFO> 13-Jun-2019::13:49:44.666 file MainThread: - Started
<INFO> 13-Jun-2019::13:49:46.678 file ComponentThread:main: - Main RUNNING
<INFO> 19-Jun-2019::12:35:27.177 file MainThread: - Exiting...
<INFO> 19-Jun-2019::12:35:27.181 file MainThread: - joining ComponentThread file.main.Main...
<INFO> 19-Jun-2019::12:35:27.191 file ComponentThread:main: - Main FINISHED
<INFO> 19-Jun-2019::12:35:27.191 file MainThread: - joined ComponentThread file.main.Main
<INFO> 19-Jun-2019::12:35:27.191 file MainThread: - Exited
<INFO> 19-Jun-2019::12:35:27.191 file MainThread: - Goodbye cruel world...
<INFO> 19-Jun-2019::12:35:27.502 file MainThread: - Python 2.7.11 (default, Mar  1 2016, 18:40:10) [GCC 4.2.1 Compatible Apple LLVM 7.0.2 (clang-700.1.81)]
<INFO> 19-Jun-2019::12:35:27.502 file MainThread: - Starting...
<INFO> 19-Jun-2019::12:35:27.504 file MainThread: - Started
<INFO> 19-Jun-2019::12:35:28.240 file ComponentThread:main: - Main RUNNING
<INFO> 21-Jun-2019::09:16:38.680 file MainThread: - Python 2.7.11 (default, Mar  1 2016, 18:40:10) [GCC 4.2.1 Compatible Apple LLVM 7.0.2 (clang-700.1.81)]
<INFO> 21-Jun-2019::09:16:38.681 file MainThread: - Starting...
<INFO> 21-Jun-2019::09:16:38.682 file MainThread: - Started
<INFO> 21-Jun-2019::09:16:40.295 file ComponentThread:main: - Main RUNNING
